simulation/qsim/FINAL.msim.vcd
$comment
	File created using the following command:
		vcd file FINAL.msim.vcd -direction
$end
$date
	Wed Nov 29 15:08:35 2023
$end
$version
	ModelSim Version 2020.1
$end
$timescale
	1ps
$end

$scope module top_vhd_vec_tst $end
$var wire 1 ! clock $end
$var wire 1 " deltaT [31] $end
$var wire 1 # deltaT [30] $end
$var wire 1 $ deltaT [29] $end
$var wire 1 % deltaT [28] $end
$var wire 1 & deltaT [27] $end
$var wire 1 ' deltaT [26] $end
$var wire 1 ( deltaT [25] $end
$var wire 1 ) deltaT [24] $end
$var wire 1 * deltaT [23] $end
$var wire 1 + deltaT [22] $end
$var wire 1 , deltaT [21] $end
$var wire 1 - deltaT [20] $end
$var wire 1 . deltaT [19] $end
$var wire 1 / deltaT [18] $end
$var wire 1 0 deltaT [17] $end
$var wire 1 1 deltaT [16] $end
$var wire 1 2 deltaT [15] $end
$var wire 1 3 deltaT [14] $end
$var wire 1 4 deltaT [13] $end
$var wire 1 5 deltaT [12] $end
$var wire 1 6 deltaT [11] $end
$var wire 1 7 deltaT [10] $end
$var wire 1 8 deltaT [9] $end
$var wire 1 9 deltaT [8] $end
$var wire 1 : deltaT [7] $end
$var wire 1 ; deltaT [6] $end
$var wire 1 < deltaT [5] $end
$var wire 1 = deltaT [4] $end
$var wire 1 > deltaT [3] $end
$var wire 1 ? deltaT [2] $end
$var wire 1 @ deltaT [1] $end
$var wire 1 A deltaT [0] $end
$var wire 1 B playerA $end
$var wire 1 C playerB $end
$var wire 1 D reset $end
$var wire 1 E winner $end

$scope module i1 $end
$var wire 1 F gnd $end
$var wire 1 G vcc $end
$var wire 1 H unknown $end
$var wire 1 I devoe $end
$var wire 1 J devclrn $end
$var wire 1 K devpor $end
$var wire 1 L ww_devoe $end
$var wire 1 M ww_devclrn $end
$var wire 1 N ww_devpor $end
$var wire 1 O ww_clock $end
$var wire 1 P ww_reset $end
$var wire 1 Q ww_playerA $end
$var wire 1 R ww_playerB $end
$var wire 1 S ww_deltaT [31] $end
$var wire 1 T ww_deltaT [30] $end
$var wire 1 U ww_deltaT [29] $end
$var wire 1 V ww_deltaT [28] $end
$var wire 1 W ww_deltaT [27] $end
$var wire 1 X ww_deltaT [26] $end
$var wire 1 Y ww_deltaT [25] $end
$var wire 1 Z ww_deltaT [24] $end
$var wire 1 [ ww_deltaT [23] $end
$var wire 1 \ ww_deltaT [22] $end
$var wire 1 ] ww_deltaT [21] $end
$var wire 1 ^ ww_deltaT [20] $end
$var wire 1 _ ww_deltaT [19] $end
$var wire 1 ` ww_deltaT [18] $end
$var wire 1 a ww_deltaT [17] $end
$var wire 1 b ww_deltaT [16] $end
$var wire 1 c ww_deltaT [15] $end
$var wire 1 d ww_deltaT [14] $end
$var wire 1 e ww_deltaT [13] $end
$var wire 1 f ww_deltaT [12] $end
$var wire 1 g ww_deltaT [11] $end
$var wire 1 h ww_deltaT [10] $end
$var wire 1 i ww_deltaT [9] $end
$var wire 1 j ww_deltaT [8] $end
$var wire 1 k ww_deltaT [7] $end
$var wire 1 l ww_deltaT [6] $end
$var wire 1 m ww_deltaT [5] $end
$var wire 1 n ww_deltaT [4] $end
$var wire 1 o ww_deltaT [3] $end
$var wire 1 p ww_deltaT [2] $end
$var wire 1 q ww_deltaT [1] $end
$var wire 1 r ww_deltaT [0] $end
$var wire 1 s ww_winner $end
$var wire 1 t \clock~input_o\ $end
$var wire 1 u \reset~input_o\ $end
$var wire 1 v \playerA~input_o\ $end
$var wire 1 w \playerB~input_o\ $end
$var wire 1 x \~QUARTUS_CREATED_GND~I_combout\ $end
$upscope $end
$upscope $end
$enddefinitions $end
#0
$dumpvars
0!
1B
0C
0D
0E
0F
1G
xH
1I
1J
1K
1L
1M
1N
0O
0P
1Q
0R
0s
0t
0u
1v
0w
xx
0"
0#
0$
0%
0&
0'
0(
0)
0*
0+
0,
0-
0.
0/
00
01
02
03
04
05
06
07
08
09
0:
0;
0<
0=
0>
0?
0@
0A
0S
0T
0U
0V
0W
0X
0Y
0Z
0[
0\
0]
0^
0_
0`
0a
0b
0c
0d
0e
0f
0g
0h
0i
0j
0k
0l
0m
0n
0o
0p
0q
0r
$end
#500
1!
1O
1t
#1000
0!
0O
0t
#1500
1!
1O
1t
#2000
0!
0O
0t
#2500
1!
1O
1t
#3000
0!
0O
0t
#3500
1!
1O
1t
#4000
0!
0O
0t
#4500
1!
1O
1t
#5000
0!
0O
0t
#5500
1!
1O
1t
#6000
0!
0O
0t
#6500
1!
1O
1t
#7000
0!
0O
0t
#7500
1!
1O
1t
#8000
0!
0O
0t
#8500
1!
1O
1t
#9000
0!
0O
0t
#9500
1!
1O
1t
#10000
0!
0O
0t
#10500
1!
1O
1t
#11000
0!
0O
0t
#11500
1!
1O
1t
#12000
0!
0O
0t
#12500
1!
1O
1t
#13000
0!
0O
0t
#13500
1!
1O
1t
#14000
0!
0O
0t
#14500
1!
1O
1t
#15000
0!
0O
0t
#15500
1!
1O
1t
#16000
0!
0O
0t
#16500
1!
1O
1t
#17000
0!
0O
0t
#17500
1!
1O
1t
#18000
0!
0O
0t
#18500
1!
1O
1t
#19000
0!
0O
0t
#19500
1!
1O
1t
#20000
0!
0O
0t
#20500
1!
1O
1t
#21000
0!
0O
0t
#21500
1!
1O
1t
#22000
0!
0O
0t
#22500
1!
1O
1t
#23000
0!
0O
0t
#23500
1!
1O
1t
#24000
0!
0O
0t
#24500
1!
1O
1t
#25000
0!
0O
0t
#25500
1!
1O
1t
#26000
0!
0O
0t
#26500
1!
1O
1t
#27000
0!
0O
0t
#27500
1!
1O
1t
#28000
0!
0O
0t
#28500
1!
1O
1t
#29000
0!
0O
0t
#29500
1!
1O
1t
#30000
0!
0O
0t
#30500
1!
1O
1t
#31000
0!
0O
0t
#31500
1!
1O
1t
#32000
0!
0O
0t
#32500
1!
1O
1t
#33000
0!
0O
0t
#33500
1!
1O
1t
#34000
0!
0O
0t
#34500
1!
1O
1t
#35000
0!
0O
0t
#35500
1!
1O
1t
#36000
0!
0O
0t
#36500
1!
1O
1t
#37000
0!
0O
0t
#37500
1!
1O
1t
#38000
0!
0O
0t
#38500
1!
1O
1t
#39000
0!
0O
0t
#39500
1!
1O
1t
#40000
0!
0O
0t
#40500
1!
1O
1t
#41000
0!
0O
0t
#41500
1!
1O
1t
#42000
0!
0O
0t
#42500
1!
1O
1t
#43000
0!
0O
0t
#43500
1!
1O
1t
#44000
0!
0O
0t
#44500
1!
1O
1t
#45000
0!
0O
0t
#45500
1!
1O
1t
#46000
0!
0O
0t
#46500
1!
1O
1t
#47000
0!
0O
0t
#47500
1!
1O
1t
#48000
0!
0O
0t
#48500
1!
1O
1t
#49000
0!
0O
0t
#49500
1!
1O
1t
#50000
0!
0O
0t
#50500
1!
1O
1t
#51000
0!
0O
0t
#51500
1!
1O
1t
#52000
0!
0O
0t
#52500
1!
1O
1t
#53000
0!
0O
0t
#53500
1!
1O
1t
#54000
0!
0O
0t
#54500
1!
1O
1t
#55000
0!
0O
0t
#55500
1!
1O
1t
#56000
0!
0O
0t
#56500
1!
1O
1t
#57000
0!
0O
0t
#57500
1!
1O
1t
#58000
0!
0O
0t
#58500
1!
1O
1t
#59000
0!
0O
0t
#59500
1!
1O
1t
#60000
0!
0O
0t
#60500
1!
1O
1t
#61000
0!
0O
0t
#61500
1!
1O
1t
#62000
0!
0O
0t
#62500
1!
1O
1t
#63000
0!
0O
0t
#63500
1!
1O
1t
#64000
0!
0O
0t
#64500
1!
1O
1t
#65000
0!
0O
0t
#65500
1!
1O
1t
#66000
0!
0O
0t
#66500
1!
1O
1t
#67000
0!
0O
0t
#67500
1!
1O
1t
#68000
0!
0O
0t
#68500
1!
1O
1t
#69000
0!
0O
0t
#69500
1!
1O
1t
#70000
0!
0O
0t
#70500
1!
1O
1t
#71000
0!
0O
0t
#71500
1!
1O
1t
#72000
0!
0O
0t
#72500
1!
1O
1t
#73000
0!
0O
0t
#73500
1!
1O
1t
#74000
0!
0O
0t
#74500
1!
1O
1t
#75000
0!
0O
0t
#75500
1!
1O
1t
#76000
0!
0O
0t
#76500
1!
1O
1t
#77000
0!
0O
0t
#77500
1!
1O
1t
#78000
0!
0O
0t
#78500
1!
1O
1t
#79000
0!
0O
0t
#79500
1!
1O
1t
#80000
0!
0O
0t
#80500
1!
1O
1t
#81000
0!
0O
0t
#81500
1!
1O
1t
#82000
0!
0O
0t
#82500
1!
1O
1t
#83000
0!
0O
0t
#83500
1!
1O
1t
#84000
0!
0O
0t
#84500
1!
1O
1t
#85000
0!
0O
0t
#85500
1!
1O
1t
#86000
0!
0O
0t
#86500
1!
1O
1t
#87000
0!
0O
0t
#87500
1!
1O
1t
#88000
0!
0O
0t
#88500
1!
1O
1t
#89000
0!
0O
0t
#89500
1!
1O
1t
#90000
0!
0O
0t
#90500
1!
1O
1t
#91000
0!
0O
0t
#91500
1!
1O
1t
#92000
0!
0O
0t
#92500
1!
1O
1t
#93000
0!
0O
0t
#93500
1!
1O
1t
#94000
0!
0O
0t
#94500
1!
1O
1t
#95000
0!
0O
0t
#95500
1!
1O
1t
#96000
0!
0O
0t
#96500
1!
1O
1t
#97000
0!
0O
0t
#97500
1!
1O
1t
#98000
0!
0O
0t
#98500
1!
1O
1t
#99000
0!
0O
0t
#99500
1!
1O
1t
#100000
0!
0O
0t
#100500
1!
1O
1t
#101000
0!
0O
0t
#101500
1!
1O
1t
#102000
0!
0O
0t
#102500
1!
1O
1t
#103000
0!
0O
0t
#103500
1!
1O
1t
#104000
0!
0O
0t
#104500
1!
1O
1t
#105000
0!
0O
0t
#105500
1!
1O
1t
#106000
0!
0O
0t
#106500
1!
1O
1t
#107000
0!
0O
0t
#107500
1!
1O
1t
#108000
0!
0O
0t
#108500
1!
1O
1t
#109000
0!
0O
0t
#109500
1!
1O
1t
#110000
0!
0O
0t
#110500
1!
1O
1t
#111000
0!
0O
0t
#111500
1!
1O
1t
#112000
0!
0O
0t
#112500
1!
1O
1t
#113000
0!
0O
0t
#113500
1!
1O
1t
#114000
0!
0O
0t
#114500
1!
1O
1t
#115000
0!
0O
0t
#115500
1!
1O
1t
#116000
0!
0O
0t
#116500
1!
1O
1t
#117000
0!
0O
0t
#117500
1!
1O
1t
#118000
0!
0O
0t
#118500
1!
1O
1t
#119000
0!
0O
0t
#119500
1!
1O
1t
#120000
0!
0O
0t
#120500
1!
1O
1t
#121000
0!
0O
0t
#121500
1!
1O
1t
#122000
0!
0O
0t
#122500
1!
1O
1t
#123000
0!
0O
0t
#123500
1!
1O
1t
#124000
0!
0O
0t
#124500
1!
1O
1t
#125000
0!
0O
0t
#125500
1!
1O
1t
#126000
0!
0O
0t
#126500
1!
1O
1t
#127000
0!
0O
0t
#127500
1!
1O
1t
#128000
0!
0O
0t
#128500
1!
1O
1t
#129000
0!
0O
0t
#129500
1!
1O
1t
#130000
0!
0O
0t
#130500
1!
1O
1t
#131000
0!
0O
0t
#131500
1!
1O
1t
#132000
0!
0O
0t
#132500
1!
1O
1t
#133000
0!
0O
0t
#133500
1!
1O
1t
#134000
0!
0O
0t
#134500
1!
1O
1t
#135000
0!
0O
0t
#135500
1!
1O
1t
#136000
0!
0O
0t
#136500
1!
1O
1t
#137000
0!
0O
0t
#137500
1!
1O
1t
#138000
0!
0O
0t
#138500
1!
1O
1t
#139000
0!
0O
0t
#139500
1!
1O
1t
#140000
0!
0O
0t
#140500
1!
1O
1t
#141000
0!
0O
0t
#141500
1!
1O
1t
#142000
0!
0O
0t
#142500
1!
1O
1t
#143000
0!
0O
0t
#143500
1!
1O
1t
#144000
0!
0O
0t
#144500
1!
1O
1t
#145000
0!
0O
0t
#145500
1!
1O
1t
#146000
0!
0O
0t
#146500
1!
1O
1t
#147000
0!
0O
0t
#147500
1!
1O
1t
#148000
0!
0O
0t
#148500
1!
1O
1t
#149000
0!
0O
0t
#149500
1!
1O
1t
#150000
0!
0O
0t
#150500
1!
1O
1t
#151000
0!
0O
0t
#151500
1!
1O
1t
#152000
0!
0O
0t
#152500
1!
1O
1t
#153000
0!
0O
0t
#153500
1!
1O
1t
#154000
0!
0O
0t
#154500
1!
1O
1t
#155000
0!
0O
0t
#155500
1!
1O
1t
#156000
0!
0O
0t
#156500
1!
1O
1t
#157000
0!
0O
0t
#157500
1!
1O
1t
#158000
0!
0O
0t
#158500
1!
1O
1t
#159000
0!
0O
0t
#159500
1!
1O
1t
#160000
0!
0O
0t
#160500
1!
1O
1t
#161000
0!
0O
0t
#161500
1!
1O
1t
#162000
0!
0O
0t
#162500
1!
1O
1t
#163000
0!
0O
0t
#163500
1!
1O
1t
#164000
0!
0O
0t
#164500
1!
1O
1t
#165000
0!
0O
0t
#165500
1!
1O
1t
#166000
0!
0O
0t
#166500
1!
1O
1t
#167000
0!
0O
0t
#167500
1!
1O
1t
#168000
0!
0O
0t
#168500
1!
1O
1t
#169000
0!
0O
0t
#169500
1!
1O
1t
#170000
0!
0O
0t
#170500
1!
1O
1t
#171000
0!
0O
0t
#171500
1!
1O
1t
#172000
0!
0O
0t
#172500
1!
1O
1t
#173000
0!
0O
0t
#173500
1!
1O
1t
#174000
0!
0O
0t
#174500
1!
1O
1t
#175000
0!
0O
0t
#175500
1!
1O
1t
#176000
0!
0O
0t
#176500
1!
1O
1t
#177000
0!
0O
0t
#177500
1!
1O
1t
#178000
0!
0O
0t
#178500
1!
1O
1t
#179000
0!
0O
0t
#179500
1!
1O
1t
#180000
0!
0O
0t
#180500
1!
1O
1t
#181000
0!
0O
0t
#181500
1!
1O
1t
#182000
0!
0O
0t
#182500
1!
1O
1t
#183000
0!
0O
0t
#183500
1!
1O
1t
#184000
0!
0O
0t
#184500
1!
1O
1t
#185000
0!
0O
0t
#185500
1!
1O
1t
#186000
0!
0O
0t
#186500
1!
1O
1t
#187000
0!
0O
0t
#187500
1!
1O
1t
#188000
0!
0O
0t
#188500
1!
1O
1t
#189000
0!
0O
0t
#189500
1!
1O
1t
#190000
0!
0O
0t
#190500
1!
1O
1t
#191000
0!
0O
0t
#191500
1!
1O
1t
#192000
0!
0O
0t
#192500
1!
1O
1t
#193000
0!
0O
0t
#193500
1!
1O
1t
#194000
0!
0O
0t
#194500
1!
1O
1t
#195000
0!
0O
0t
#195500
1!
1O
1t
#196000
0!
0O
0t
#196500
1!
1O
1t
#197000
0!
0O
0t
#197500
1!
1O
1t
#198000
0!
0O
0t
#198500
1!
1O
1t
#199000
0!
0O
0t
#199500
1!
1O
1t
#200000
0!
0O
0t
#200500
1!
1O
1t
#201000
0!
0O
0t
#201500
1!
1O
1t
#202000
0!
0O
0t
#202500
1!
1O
1t
#203000
0!
0O
0t
#203500
1!
1O
1t
#204000
0!
0O
0t
#204500
1!
1O
1t
#205000
0!
0O
0t
#205500
1!
1O
1t
#206000
0!
0O
0t
#206500
1!
1O
1t
#207000
0!
0O
0t
#207500
1!
1O
1t
#208000
0!
0O
0t
#208500
1!
1O
1t
#209000
0!
0O
0t
#209500
1!
1O
1t
#210000
0!
0O
0t
#210500
1!
1O
1t
#211000
0!
0O
0t
#211500
1!
1O
1t
#212000
0!
0O
0t
#212500
1!
1O
1t
#213000
0!
0O
0t
#213500
1!
1O
1t
#214000
0!
0O
0t
#214500
1!
1O
1t
#215000
0!
0O
0t
#215500
1!
1O
1t
#216000
0!
0O
0t
#216500
1!
1O
1t
#217000
0!
0O
0t
#217500
1!
1O
1t
#218000
0!
0O
0t
#218500
1!
1O
1t
#219000
0!
0O
0t
#219500
1!
1O
1t
#220000
0!
0O
0t
#220500
1!
1O
1t
#221000
0!
0O
0t
#221500
1!
1O
1t
#222000
0!
0O
0t
#222500
1!
1O
1t
#223000
0!
0O
0t
#223500
1!
1O
1t
#224000
0!
0O
0t
#224500
1!
1O
1t
#225000
0!
0O
0t
#225500
1!
1O
1t
#226000
0!
0O
0t
#226500
1!
1O
1t
#227000
0!
0O
0t
#227500
1!
1O
1t
#228000
0!
0O
0t
#228500
1!
1O
1t
#229000
0!
0O
0t
#229500
1!
1O
1t
#230000
0!
0O
0t
#230500
1!
1O
1t
#231000
0!
0O
0t
#231500
1!
1O
1t
#232000
0!
0O
0t
#232500
1!
1O
1t
#233000
0!
0O
0t
#233500
1!
1O
1t
#234000
0!
0O
0t
#234500
1!
1O
1t
#235000
0!
0O
0t
#235500
1!
1O
1t
#236000
0!
0O
0t
#236500
1!
1O
1t
#237000
0!
0O
0t
#237500
1!
1O
1t
#238000
0!
0O
0t
#238500
1!
1O
1t
#239000
0!
0O
0t
#239500
1!
1O
1t
#240000
0!
0O
0t
#240500
1!
1O
1t
#241000
0!
0O
0t
#241500
1!
1O
1t
#242000
0!
0O
0t
#242500
1!
1O
1t
#243000
0!
0O
0t
#243500
1!
1O
1t
#244000
0!
0O
0t
#244500
1!
1O
1t
#245000
0!
0O
0t
#245500
1!
1O
1t
#246000
0!
0O
0t
#246500
1!
1O
1t
#247000
0!
0O
0t
#247500
1!
1O
1t
#248000
0!
0O
0t
#248500
1!
1O
1t
#249000
0!
0O
0t
#249500
1!
1O
1t
#250000
0!
0O
0t
#250500
1!
1O
1t
#251000
0!
0O
0t
#251500
1!
1O
1t
#252000
0!
0O
0t
#252500
1!
1O
1t
#253000
0!
0O
0t
#253500
1!
1O
1t
#254000
0!
0O
0t
#254500
1!
1O
1t
#255000
0!
0O
0t
#255500
1!
1O
1t
#256000
0!
0O
0t
#256500
1!
1O
1t
#257000
0!
0O
0t
#257500
1!
1O
1t
#258000
0!
0O
0t
#258500
1!
1O
1t
#259000
0!
0O
0t
#259500
1!
1O
1t
#260000
0!
0O
0t
#260500
1!
1O
1t
#261000
0!
0O
0t
#261500
1!
1O
1t
#262000
0!
0O
0t
#262500
1!
1O
1t
#263000
0!
0O
0t
#263500
1!
1O
1t
#264000
0!
0O
0t
#264500
1!
1O
1t
#265000
0!
0O
0t
#265500
1!
1O
1t
#266000
0!
0O
0t
#266500
1!
1O
1t
#267000
0!
0O
0t
#267500
1!
1O
1t
#268000
0!
0O
0t
#268500
1!
1O
1t
#269000
0!
0O
0t
#269500
1!
1O
1t
#270000
0!
0O
0t
#270500
1!
1O
1t
#271000
0!
0O
0t
#271500
1!
1O
1t
#272000
0!
0O
0t
#272500
1!
1O
1t
#273000
0!
0O
0t
#273500
1!
1O
1t
#274000
0!
0O
0t
#274500
1!
1O
1t
#275000
0!
0O
0t
#275500
1!
1O
1t
#276000
0!
0O
0t
#276500
1!
1O
1t
#277000
0!
0O
0t
#277500
1!
1O
1t
#278000
0!
0O
0t
#278500
1!
1O
1t
#279000
0!
0O
0t
#279500
1!
1O
1t
#280000
0!
0O
0t
#280500
1!
1O
1t
#281000
0!
0O
0t
#281500
1!
1O
1t
#282000
0!
0O
0t
#282500
1!
1O
1t
#283000
0!
0O
0t
#283500
1!
1O
1t
#284000
0!
0O
0t
#284500
1!
1O
1t
#285000
0!
0O
0t
#285500
1!
1O
1t
#286000
0!
0O
0t
#286500
1!
1O
1t
#287000
0!
0O
0t
#287500
1!
1O
1t
#288000
0!
0O
0t
#288500
1!
1O
1t
#289000
0!
0O
0t
#289500
1!
1O
1t
#290000
0!
0O
0t
#290500
1!
1O
1t
#291000
0!
0O
0t
#291500
1!
1O
1t
#292000
0!
0O
0t
#292500
1!
1O
1t
#293000
0!
0O
0t
#293500
1!
1O
1t
#294000
0!
0O
0t
#294500
1!
1O
1t
#295000
0!
0O
0t
#295500
1!
1O
1t
#296000
0!
0O
0t
#296500
1!
1O
1t
#297000
0!
0O
0t
#297500
1!
1O
1t
#298000
0!
0O
0t
#298500
1!
1O
1t
#299000
0!
0O
0t
#299500
1!
1O
1t
#300000
0!
0O
0t
#300500
1!
1O
1t
#301000
0!
0O
0t
#301500
1!
1O
1t
#302000
0!
0O
0t
#302500
1!
1O
1t
#303000
0!
0O
0t
#303500
1!
1O
1t
#304000
0!
0O
0t
#304500
1!
1O
1t
#305000
0!
0O
0t
#305500
1!
1O
1t
#306000
0!
0O
0t
#306500
1!
1O
1t
#307000
0!
0O
0t
#307500
1!
1O
1t
#308000
0!
0O
0t
#308500
1!
1O
1t
#309000
0!
0O
0t
#309500
1!
1O
1t
#310000
0!
0O
0t
#310500
1!
1O
1t
#311000
0!
0O
0t
#311500
1!
1O
1t
#312000
0!
0O
0t
#312500
1!
1O
1t
#313000
0!
0O
0t
#313500
1!
1O
1t
#314000
0!
0O
0t
#314500
1!
1O
1t
#315000
0!
0O
0t
#315500
1!
1O
1t
#316000
0!
0O
0t
#316500
1!
1O
1t
#317000
0!
0O
0t
#317500
1!
1O
1t
#318000
0!
0O
0t
#318500
1!
1O
1t
#319000
0!
0O
0t
#319500
1!
1O
1t
#320000
0!
0O
0t
#320500
1!
1O
1t
#321000
0!
0O
0t
#321500
1!
1O
1t
#322000
0!
0O
0t
#322500
1!
1O
1t
#323000
0!
0O
0t
#323500
1!
1O
1t
#324000
0!
0O
0t
#324500
1!
1O
1t
#325000
0!
0O
0t
#325500
1!
1O
1t
#326000
0!
0O
0t
#326500
1!
1O
1t
#327000
0!
0O
0t
#327500
1!
1O
1t
#328000
0!
0O
0t
#328500
1!
1O
1t
#329000
0!
0O
0t
#329500
1!
1O
1t
#330000
0!
0O
0t
#330500
1!
1O
1t
#331000
0!
0O
0t
#331500
1!
1O
1t
#332000
0!
0O
0t
#332500
1!
1O
1t
#333000
0!
0O
0t
#333500
1!
1O
1t
#334000
0!
0O
0t
#334500
1!
1O
1t
#335000
0!
0O
0t
#335500
1!
1O
1t
#336000
0!
0O
0t
#336500
1!
1O
1t
#337000
0!
0O
0t
#337500
1!
1O
1t
#338000
0!
0O
0t
#338500
1!
1O
1t
#339000
0!
0O
0t
#339500
1!
1O
1t
#340000
0!
0O
0t
#340500
1!
1O
1t
#341000
0!
0O
0t
#341500
1!
1O
1t
#342000
0!
0O
0t
#342500
1!
1O
1t
#343000
0!
0O
0t
#343500
1!
1O
1t
#344000
0!
0O
0t
#344500
1!
1O
1t
#345000
0!
0O
0t
#345500
1!
1O
1t
#346000
0!
0O
0t
#346500
1!
1O
1t
#347000
0!
0O
0t
#347500
1!
1O
1t
#348000
0!
0O
0t
#348500
1!
1O
1t
#349000
0!
0O
0t
#349500
1!
1O
1t
#350000
0!
0O
0t
#350500
1!
1O
1t
#351000
0!
0O
0t
#351500
1!
1O
1t
#352000
0!
0O
0t
#352500
1!
1O
1t
#353000
0!
0O
0t
#353500
1!
1O
1t
#354000
0!
0O
0t
#354500
1!
1O
1t
#355000
0!
0O
0t
#355500
1!
1O
1t
#356000
0!
0O
0t
#356500
1!
1O
1t
#357000
0!
0O
0t
#357500
1!
1O
1t
#358000
0!
0O
0t
#358500
1!
1O
1t
#359000
0!
0O
0t
#359500
1!
1O
1t
#360000
0!
0O
0t
#360500
1!
1O
1t
#361000
0!
0O
0t
#361500
1!
1O
1t
#362000
0!
0O
0t
#362500
1!
1O
1t
#363000
0!
0O
0t
#363500
1!
1O
1t
#364000
0!
0O
0t
#364500
1!
1O
1t
#365000
0!
0O
0t
#365500
1!
1O
1t
#366000
0!
0O
0t
#366500
1!
1O
1t
#367000
0!
0O
0t
#367500
1!
1O
1t
#368000
0!
0O
0t
#368500
1!
1O
1t
#369000
0!
0O
0t
#369500
1!
1O
1t
#370000
0!
0O
0t
#370500
1!
1O
1t
#371000
0!
0O
0t
#371500
1!
1O
1t
#372000
0!
0O
0t
#372500
1!
1O
1t
#373000
0!
0O
0t
#373500
1!
1O
1t
#374000
0!
0O
0t
#374500
1!
1O
1t
#375000
0!
0O
0t
#375500
1!
1O
1t
#376000
0!
0O
0t
#376500
1!
1O
1t
#377000
0!
0O
0t
#377500
1!
1O
1t
#378000
0!
0O
0t
#378500
1!
1O
1t
#379000
0!
0O
0t
#379500
1!
1O
1t
#380000
0!
0O
0t
#380500
1!
1O
1t
#381000
0!
0O
0t
#381500
1!
1O
1t
#382000
0!
0O
0t
#382500
1!
1O
1t
#383000
0!
0O
0t
#383500
1!
1O
1t
#384000
0!
0O
0t
#384500
1!
1O
1t
#385000
0!
0O
0t
#385500
1!
1O
1t
#386000
0!
0O
0t
#386500
1!
1O
1t
#387000
0!
0O
0t
#387500
1!
1O
1t
#388000
0!
0O
0t
#388500
1!
1O
1t
#389000
0!
0O
0t
#389500
1!
1O
1t
#390000
0!
0O
0t
#390500
1!
1O
1t
#391000
0!
0O
0t
#391500
1!
1O
1t
#392000
0!
0O
0t
#392500
1!
1O
1t
#393000
0!
0O
0t
#393500
1!
1O
1t
#394000
0!
0O
0t
#394500
1!
1O
1t
#395000
0!
0O
0t
#395500
1!
1O
1t
#396000
0!
0O
0t
#396500
1!
1O
1t
#397000
0!
0O
0t
#397500
1!
1O
1t
#398000
0!
0O
0t
#398500
1!
1O
1t
#399000
0!
0O
0t
#399500
1!
1O
1t
#400000
0!
0O
0t
#400500
1!
1O
1t
#401000
0!
0O
0t
#401500
1!
1O
1t
#402000
0!
0O
0t
#402500
1!
1O
1t
#403000
0!
0O
0t
#403500
1!
1O
1t
#404000
0!
0O
0t
#404500
1!
1O
1t
#405000
0!
0O
0t
#405500
1!
1O
1t
#406000
0!
0O
0t
#406500
1!
1O
1t
#407000
0!
0O
0t
#407500
1!
1O
1t
#408000
0!
0O
0t
#408500
1!
1O
1t
#409000
0!
0O
0t
#409500
1!
1O
1t
#410000
0!
0O
0t
#410500
1!
1O
1t
#411000
0!
0O
0t
#411500
1!
1O
1t
#412000
0!
0O
0t
#412500
1!
1O
1t
#413000
0!
0O
0t
#413500
1!
1O
1t
#414000
0!
0O
0t
#414500
1!
1O
1t
#415000
0!
0O
0t
#415500
1!
1O
1t
#416000
0!
0O
0t
#416500
1!
1O
1t
#417000
0!
0O
0t
#417500
1!
1O
1t
#418000
0!
0O
0t
#418500
1!
1O
1t
#419000
0!
0O
0t
#419500
1!
1O
1t
#420000
0!
0O
0t
#420500
1!
1O
1t
#421000
0!
0O
0t
#421500
1!
1O
1t
#422000
0!
0O
0t
#422500
1!
1O
1t
#423000
0!
0O
0t
#423500
1!
1O
1t
#424000
0!
0O
0t
#424500
1!
1O
1t
#425000
0!
0O
0t
#425500
1!
1O
1t
#426000
0!
0O
0t
#426500
1!
1O
1t
#427000
0!
0O
0t
#427500
1!
1O
1t
#428000
0!
0O
0t
#428500
1!
1O
1t
#429000
0!
0O
0t
#429500
1!
1O
1t
#430000
0!
0O
0t
#430500
1!
1O
1t
#431000
0!
0O
0t
#431500
1!
1O
1t
#432000
0!
0O
0t
#432500
1!
1O
1t
#433000
0!
0O
0t
#433500
1!
1O
1t
#434000
0!
0O
0t
#434500
1!
1O
1t
#435000
0!
0O
0t
#435500
1!
1O
1t
#436000
0!
0O
0t
#436500
1!
1O
1t
#437000
0!
0O
0t
#437500
1!
1O
1t
#438000
0!
0O
0t
#438500
1!
1O
1t
#439000
0!
0O
0t
#439500
1!
1O
1t
#440000
0!
0O
0t
#440500
1!
1O
1t
#441000
0!
0O
0t
#441500
1!
1O
1t
#442000
0!
0O
0t
#442500
1!
1O
1t
#443000
0!
0O
0t
#443500
1!
1O
1t
#444000
0!
0O
0t
#444500
1!
1O
1t
#445000
0!
0O
0t
#445500
1!
1O
1t
#446000
0!
0O
0t
#446500
1!
1O
1t
#447000
0!
0O
0t
#447500
1!
1O
1t
#448000
0!
0O
0t
#448500
1!
1O
1t
#449000
0!
0O
0t
#449500
1!
1O
1t
#450000
0!
0O
0t
#450500
1!
1O
1t
#451000
0!
0O
0t
#451500
1!
1O
1t
#452000
0!
0O
0t
#452500
1!
1O
1t
#453000
0!
0O
0t
#453500
1!
1O
1t
#454000
0!
0O
0t
#454500
1!
1O
1t
#455000
0!
0O
0t
#455500
1!
1O
1t
#456000
0!
0O
0t
#456500
1!
1O
1t
#457000
0!
0O
0t
#457500
1!
1O
1t
#458000
0!
0O
0t
#458500
1!
1O
1t
#459000
0!
0O
0t
#459500
1!
1O
1t
#460000
0!
0O
0t
#460500
1!
1O
1t
#461000
0!
0O
0t
#461500
1!
1O
1t
#462000
0!
0O
0t
#462500
1!
1O
1t
#463000
0!
0O
0t
#463500
1!
1O
1t
#464000
0!
0O
0t
#464500
1!
1O
1t
#465000
0!
0O
0t
#465500
1!
1O
1t
#466000
0!
0O
0t
#466500
1!
1O
1t
#467000
0!
0O
0t
#467500
1!
1O
1t
#468000
0!
0O
0t
#468500
1!
1O
1t
#469000
0!
0O
0t
#469500
1!
1O
1t
#470000
0!
0O
0t
#470500
1!
1O
1t
#471000
0!
0O
0t
#471500
1!
1O
1t
#472000
0!
0O
0t
#472500
1!
1O
1t
#473000
0!
0O
0t
#473500
1!
1O
1t
#474000
0!
0O
0t
#474500
1!
1O
1t
#475000
0!
0O
0t
#475500
1!
1O
1t
#476000
0!
0O
0t
#476500
1!
1O
1t
#477000
0!
0O
0t
#477500
1!
1O
1t
#478000
0!
0O
0t
#478500
1!
1O
1t
#479000
0!
0O
0t
#479500
1!
1O
1t
#480000
0!
0O
0t
#480500
1!
1O
1t
#481000
0!
0O
0t
#481500
1!
1O
1t
#482000
0!
0O
0t
#482500
1!
1O
1t
#483000
0!
0O
0t
#483500
1!
1O
1t
#484000
0!
0O
0t
#484500
1!
1O
1t
#485000
0!
0O
0t
#485500
1!
1O
1t
#486000
0!
0O
0t
#486500
1!
1O
1t
#487000
0!
0O
0t
#487500
1!
1O
1t
#488000
0!
0O
0t
#488500
1!
1O
1t
#489000
0!
0O
0t
#489500
1!
1O
1t
#490000
0!
0O
0t
#490500
1!
1O
1t
#491000
0!
0O
0t
#491500
1!
1O
1t
#492000
0!
0O
0t
#492500
1!
1O
1t
#493000
0!
0O
0t
#493500
1!
1O
1t
#494000
0!
0O
0t
#494500
1!
1O
1t
#495000
0!
0O
0t
#495500
1!
1O
1t
